{
  "description": "A Spotify podcast sharing fresh insights on important topics of the moment—in a way only Spotify can. You’ll hear from experts in the music, podcast and tech industries as we discover and uncover stories about our work and the world around us.\n",
  "duration_ms": 1686230,
  "explicit": true,
  "external_urls": {
    "spotify": "string"
  },
  "id": "5Xt5DXGzch68nYYamXrNxZ",
  "images": [
    {
      "url": "https://i.scdn.co/image/ab67616d00001e02ff9ca10b55ce82ae553c8228\n",
      "height": 300,
      "width": 300
    }
  ],
  "language": "en",
  "languages": [],
  "name": "Starting Your Own Podcast: Tips, Tricks, and Advice From Anchor Creators\n",
  "release_date": "1981-12-15",
  "resume_point": {
    "fully_played": true,
    "resume_position_ms": 0
  },
  "type": "episode",
  "uri": "spotify:episode:0zLhl3WsOCQHbe1BPTiHgr"
}